<?xml version="1.0" encoding="UTF-8"?>
<svg width="24px" height="31px" viewBox="0 0 24 31" version="1.1" xmlns="http://www.w3.org/2000/svg" xmlns:xlink="http://www.w3.org/1999/xlink">
    <!-- Generator: Sketch 52.5 (67469) - http://www.bohemiancoding.com/sketch -->
    <title>Location-pin - simple-line-icons</title>
    <desc>Created with Sketch.</desc>
    <g id="Page-1" stroke="none" stroke-width="1" fill="none" fill-rule="evenodd">
        <g id="XL" transform="translate(-524.000000, -882.000000)" fill="#FFFFFF">
            <g id="Group-7" transform="translate(0.000000, 102.000000)">
                <g id="Group-4" transform="translate(521.000000, 781.000000)">
                    <path d="M15.1171875,-0.125 C16.8750088,-0.125 18.4472587,0.177731348 19.8339844,0.783203125 C21.2207101,1.3886749 22.3876906,2.21386196 23.3349609,3.25878906 C24.2822313,4.30371616 25.0048803,5.51952432 25.5029297,6.90625 C26.0009791,8.29297568 26.25,9.75780479 26.25,11.3007812 C26.25,12.8632891 25.9423859,14.4599528 25.3271484,16.0908203 C24.711911,17.7216878 23.9355516,19.3232343 22.9980469,20.8955078 C22.0605422,22.4677813 21.0449273,23.9570242 19.9511719,25.3632812 C18.8574164,26.7695383 17.832036,28.0195258 16.875,29.1132812 C16.875,29.1328126 16.7285171,29.2646472 16.4355469,29.5087891 C16.1425767,29.7529309 15.8007832,29.875 15.4101562,29.875 L15.3222656,29.875 C14.9121073,29.875 14.5654311,29.7529309 14.2822266,29.5087891 C13.999022,29.2646472 13.8574219,29.1328126 13.8574219,29.1132812 C12.8417918,27.9414004 11.74317,26.6621163 10.5615234,25.2753906 C9.3798769,23.8886649 8.28613784,22.4287186 7.28027344,20.8955078 C6.27440903,19.362297 5.43457368,17.7851644 4.76074219,16.1640625 C4.08691069,14.5429606 3.75,12.9218831 3.75,11.3007812 C3.75,9.75780479 4.05273135,8.29297568 4.65820312,6.90625 C5.2636749,5.51952432 6.0839792,4.30371616 7.11914062,3.25878906 C8.15430205,2.21386196 9.36034468,1.3886749 10.7373047,0.783203125 C12.1142647,0.177731348 13.574211,-0.125 15.1171875,-0.125 Z M15.46875,27.8535156 C16.9531324,26.1542884 18.2519476,24.5332108 19.3652344,22.9902344 C20.4785212,21.4472579 21.4062463,19.9873116 22.1484375,18.6103516 C22.8906287,17.2333916 23.4472638,15.9345764 23.8183594,14.7138672 C24.189455,13.493158 24.375,12.355474 24.375,11.3007812 C24.375,10.109369 24.1943377,8.94238853 23.8330078,7.79980469 C23.4716779,6.65722085 22.9101601,5.63672324 22.1484375,4.73828125 C21.3867149,3.83983926 20.4248105,3.11719023 19.2626953,2.5703125 C18.1005801,2.02343477 16.718758,1.75 15.1171875,1.75 C13.8281186,1.75 12.6074276,2.00390371 11.4550781,2.51171875 C10.3027286,3.01953379 9.2968793,3.70800347 8.4375,4.57714844 C7.5781207,5.44629341 6.89453379,6.46190825 6.38671875,7.62402344 C5.87890371,8.78613862 5.625,10.0117123 5.625,11.3007812 C5.625,12.6875069 5.91796582,14.0937429 6.50390625,15.5195312 C7.08984668,16.9453196 7.83202676,18.3466728 8.73046875,19.7236328 C9.62891074,21.1005928 10.615229,22.4287045 11.6894531,23.7080078 C12.7636772,24.9873111 13.7792921,26.1835882 14.7363281,27.296875 L15.234375,27.8535156 L15.3515625,27.9707031 C15.3710938,27.9511718 15.3955077,27.9316407 15.4248047,27.9121094 C15.4541017,27.892578 15.46875,27.873047 15.46875,27.8535156 Z M15.0292969,5.52929688 C16.5918047,5.52929688 17.9199164,6.08104917 19.0136719,7.18457031 C20.1074273,8.28809146 20.6542969,9.61132041 20.6542969,11.1542969 C20.6542969,12.7168047 20.1074273,14.0449164 19.0136719,15.1386719 C17.9199164,16.2324273 16.5918047,16.7792969 15.0292969,16.7792969 C13.4863204,16.7792969 12.1630915,16.2324273 11.0595703,15.1386719 C9.95604917,14.0449164 9.40429688,12.7168047 9.40429688,11.1542969 C9.40429688,9.61132041 9.95604917,8.28809146 11.0595703,7.18457031 C12.1630915,6.08104917 13.4863204,5.52929688 15.0292969,5.52929688 Z M15.0292969,14.9042969 C16.0644583,14.9042969 16.9433558,14.5332068 17.6660156,13.7910156 C18.3886755,13.0488244 18.75,12.1601614 18.75,11.125 C18.75,10.0898386 18.3837927,9.20605835 17.6513672,8.47363281 C16.9189417,7.74120728 16.0351614,7.375 15,7.375 C13.9648386,7.375 13.0810583,7.74120728 12.3486328,8.47363281 C11.6162073,9.20605835 11.25,10.0898386 11.25,11.125 C11.25,12.1601614 11.62109,13.0488244 12.3632812,13.7910156 C13.1054725,14.5332068 13.9941354,14.9042969 15.0292969,14.9042969 Z" id="Location-pin---simple-line-icons"></path>
                </g>
            </g>
        </g>
    </g>
</svg>