<?xml version="1.0" encoding="UTF-8"?>
<svg width="30px" height="31px" viewBox="0 0 30 31" version="1.1" xmlns="http://www.w3.org/2000/svg" xmlns:xlink="http://www.w3.org/1999/xlink">
    <!-- Generator: Sketch 52.5 (67469) - http://www.bohemiancoding.com/sketch -->
    <title>User-female - simple-line-icons</title>
    <desc>Created with Sketch.</desc>
    <g id="Page-1" stroke="none" stroke-width="1" fill="none" fill-rule="evenodd">
        <g id="XL" transform="translate(-1014.000000, -882.000000)" fill="#FFFFFF">
            <g id="Group-7" transform="translate(0.000000, 102.000000)">
                <g id="Group-8" transform="translate(1014.000000, 781.000000)">
                    <path d="M28.125,23.4003906 L29.0625,23.9130859 C29.6875031,24.2548845 30,24.8164023 30,25.5976562 L30,28.0878906 C30,28.5957057 29.8193377,29.0205061 29.4580078,29.3623047 C29.0966779,29.7041033 28.6523464,29.875 28.125,29.875 L1.875,29.875 C1.34765361,29.875 0.903322119,29.7041033 0.541992188,29.3623047 C0.180662256,29.0205061 0,28.5957057 0,28.0878906 L0,25.5976562 C0,24.8164023 0.312496875,24.2548845 0.9375,23.9130859 L1.875,23.4003906 L10.0195312,19.5332031 C9.49218486,19.2597643 8.45703896,19.0302744 6.9140625,18.8447266 C5.37108604,18.6591788 4.51171963,18.3222681 4.3359375,17.8339844 L5.22949219,16.1347656 C5.82519829,15.0019475 6.23046768,13.5957115 6.4453125,11.9160156 C6.52343789,11.2714812 6.62597593,10.50977 6.75292969,9.63085938 C6.87988345,8.75194873 7.01171807,7.7070373 7.1484375,6.49609375 C7.24609424,5.53905771 7.519529,4.65039473 7.96875,3.83007812 C8.417971,3.00976152 8.98925435,2.30664355 9.68261719,1.72070312 C10.37598,1.1347627 11.1767533,0.680665674 12.0849609,0.358398438 C12.9931686,0.0361312012 13.9648386,-0.125 15,-0.125 C16.0351614,-0.125 17.0068314,0.0361312012 17.9150391,0.358398438 C18.8232467,0.680665674 19.62402,1.1347627 20.3173828,1.72070312 C21.0107457,2.30664355 21.582029,3.00976152 22.03125,3.83007812 C22.480471,4.65039473 22.7539058,5.53905771 22.8515625,6.49609375 C22.9882819,7.7070373 23.1201166,8.75194873 23.2470703,9.63085938 C23.3740241,10.50977 23.4765621,11.2714812 23.5546875,11.9160156 C23.7695323,13.5957115 24.1748017,15.0019475 24.7705078,16.1347656 L25.6640625,17.8339844 C25.4882804,18.3222681 24.628914,18.6591788 23.0859375,18.8447266 C21.542961,19.0302744 20.5078151,19.2597643 19.9804688,19.5332031 L28.125,23.4003906 Z M1.875,28 L28.125,28 L28.125,25.5976562 C28.1054687,25.5585936 28.0273444,25.4902349 27.890625,25.3925781 C27.7539056,25.2949214 27.6171882,25.2167972 27.4804688,25.1582031 L27.3925781,25.1142578 C27.3730468,25.1044921 27.3535157,25.0996094 27.3339844,25.0996094 L19.1601562,21.203125 C18.8476547,21.0664056 18.593751,20.8466812 18.3984375,20.5439453 C18.203124,20.2412094 18.1054688,19.9042987 18.1054688,19.5332031 C18.0859374,19.1816389 18.1689444,18.8544937 18.3544922,18.5517578 C18.54004,18.2490219 18.7988265,18.0097665 19.1308594,17.8339844 C19.4433609,17.6777336 19.8193337,17.5507817 20.2587891,17.453125 C20.6982444,17.3554683 21.2499967,17.2480475 21.9140625,17.1308594 C22.0703133,17.111328 22.2509755,17.0820314 22.4560547,17.0429688 C22.6611338,17.0039061 22.8613271,16.9648439 23.0566406,16.9257812 C22.8027331,16.3203095 22.5439466,15.607426 22.2802734,14.7871094 C22.0166002,13.9667928 21.8261725,13.0781298 21.7089844,12.1210938 C21.6699217,11.8867176 21.6357423,11.6376966 21.6064453,11.3740234 C21.5771483,11.1103502 21.5429689,10.8320327 21.5039062,10.5390625 C21.4257809,10.0312475 21.3427739,9.45996411 21.2548828,8.82519531 C21.1669917,8.19042651 21.0839848,7.49219131 21.0058594,6.73046875 C20.8300772,5.26561768 20.1855524,4.06934058 19.0722656,3.14160156 C17.9589788,2.21386255 16.6015705,1.75 15,1.75 C13.3984295,1.75 12.0410212,2.21386255 10.9277344,3.14160156 C9.81444756,4.06934058 9.16992275,5.26561768 8.99414062,6.73046875 C8.91601523,7.49219131 8.83300825,8.19042651 8.74511719,8.82519531 C8.65722612,9.45996411 8.57421914,10.0312475 8.49609375,10.5390625 C8.45703105,10.8320327 8.42285171,11.1103502 8.39355469,11.3740234 C8.36425767,11.6376966 8.33007832,11.8867176 8.29101562,12.1210938 C8.17382754,13.0781298 7.98339976,13.9667928 7.71972656,14.7871094 C7.45605337,15.607426 7.19726689,16.3203095 6.94335938,16.9257812 C7.13867285,16.9648439 7.33886616,17.0039061 7.54394531,17.0429688 C7.74902446,17.0820314 7.92968672,17.111328 8.0859375,17.1308594 C8.75000332,17.2480475 9.30175562,17.3554683 9.74121094,17.453125 C10.1806663,17.5507817 10.5566391,17.6777336 10.8691406,17.8339844 C11.2011735,18.0097665 11.45996,18.2490219 11.6455078,18.5517578 C11.8310556,18.8544937 11.9140626,19.1816389 11.8945312,19.5332031 C11.8945312,19.9042987 11.796876,20.2412094 11.6015625,20.5439453 C11.406249,20.8466812 11.1523453,21.0664056 10.8398438,21.203125 L2.66601562,25.0703125 C2.64648428,25.0898438 2.62695322,25.1044921 2.60742188,25.1142578 L2.51953125,25.1582031 C2.38281182,25.2167972 2.24121167,25.2949214 2.09472656,25.3925781 C1.94824146,25.4902349 1.875,25.5585936 1.875,25.5976562 L1.875,28 Z" id="User-female---simple-line-icons"></path>
                </g>
            </g>
        </g>
    </g>
</svg>