<?xml version="1.0" encoding="UTF-8"?>
<svg width="20px" height="20px" viewBox="0 0 20 20" version="1.1" xmlns="http://www.w3.org/2000/svg" xmlns:xlink="http://www.w3.org/1999/xlink">
    <!-- Generator: Sketch 52.5 (67469) - http://www.bohemiancoding.com/sketch -->
    <title>Phone - simple-line-icons Copy</title>
    <desc>Created with Sketch.</desc>
    <g id="Page-1" stroke="none" stroke-width="1" fill="none" fill-rule="evenodd">
        <g id="XL" transform="translate(-1060.000000, -13805.000000)" fill="#FFFFFF">
            <g id="Group-29" transform="translate(0.000000, 13676.000000)">
                <g id="Group-9" transform="translate(1009.000000, 78.000000)">
                    <path d="M56.1171875,51.9726562 C56.4817727,52.4804713 56.8821593,53.0598926 57.3183594,53.7109375 C57.7545595,54.3619824 58.22656,55.0846314 58.734375,55.8789062 C58.864584,56.0872406 58.919922,56.3216133 58.9003906,56.5820312 C58.8808593,56.8424492 58.7864592,57.1223943 58.6171875,57.421875 C58.552083,57.552084 58.441407,57.7604152 58.2851562,58.046875 C58.1289055,58.3333348 57.9270846,58.7044248 57.6796875,59.1601562 C57.9531264,59.5507832 58.3014302,59.9869768 58.7246094,60.46875 C59.1477886,60.9505232 59.6393201,61.4713514 60.1992188,62.03125 C60.7721383,62.6041695 61.2962216,63.1022114 61.7714844,63.5253906 C62.2467472,63.9485698 62.6731752,64.2968736 63.0507812,64.5703125 C63.4934918,64.3098945 63.8613267,64.0983081 64.1542969,63.9355469 C64.4472671,63.7727856 64.6588535,63.6588545 64.7890625,63.59375 C64.9453133,63.5026037 65.1048169,63.434245 65.2675781,63.3886719 C65.4303394,63.3430987 65.5833326,63.3203125 65.7265625,63.3203125 C65.8437506,63.3203125 65.9511714,63.3333332 66.0488281,63.359375 C66.1464849,63.3854168 66.240885,63.4244789 66.3320312,63.4765625 C66.9179717,63.8281268 67.5364551,64.222003 68.1875,64.6582031 C68.8385449,65.0944032 69.5351525,65.5729141 70.2773438,66.09375 C70.4075527,66.1848963 70.5117184,66.3020826 70.5898438,66.4453125 C70.6679691,66.5885424 70.720052,66.7447908 70.7460938,66.9140625 C70.7591146,67.0963551 70.7395836,67.2819001 70.6875,67.4707031 C70.6354164,67.6595062 70.5442715,67.8515615 70.4140625,68.046875 C70.3619789,68.1380213 70.2838547,68.2486973 70.1796875,68.3789062 C70.0755203,68.5091152 69.9518236,68.6588533 69.8085938,68.828125 C69.6783848,68.9973967 69.5091156,69.1894521 69.3007812,69.4042969 C69.0924469,69.6191417 68.8450535,69.8567695 68.5585938,70.1171875 C68.2851549,70.3776055 68.0345063,70.572916 67.8066406,70.703125 C67.5787749,70.833334 67.3802092,70.8984375 67.2109375,70.8984375 L67.171875,70.8984375 C66.4947883,70.8723957 65.78516,70.7259128 65.0429688,70.4589844 C64.3007775,70.192056 63.5195354,69.8112004 62.6992188,69.3164062 C61.8789021,68.8216121 61.0195357,68.2031287 60.1210938,67.4609375 C59.2226518,66.7187463 58.2851611,65.8658902 57.3085938,64.9023438 C56.3320264,63.9257764 55.4759151,62.9882857 54.7402344,62.0898438 C54.0045536,61.1914018 53.3860702,60.3320354 52.8847656,59.5117188 C52.383461,58.6914021 52.0026055,57.9069048 51.7421875,57.1582031 C51.4817695,56.4095015 51.3385418,55.7031283 51.3125,55.0390625 C51.3125,54.8567699 51.3776035,54.6516938 51.5078125,54.4238281 C51.6380215,54.1959624 51.833332,53.9388035 52.09375,53.6523438 C52.354168,53.365884 52.5885406,53.1217458 52.796875,52.9199219 C53.0052094,52.7180979 53.1940096,52.552084 53.3632812,52.421875 C53.519532,52.3046869 53.6692701,52.1940109 53.8125,52.0898438 C53.9557299,51.9856766 54.0794266,51.8945316 54.1835938,51.8164062 C54.3268236,51.7122391 54.4765617,51.63737 54.6328125,51.5917969 C54.7890633,51.5462237 54.9583324,51.5234375 55.140625,51.5234375 C55.3489594,51.5234375 55.5345044,51.5592444 55.6972656,51.6308594 C55.8600269,51.7024743 55.9999994,51.8164055 56.1171875,51.9726562 Z M54.8671875,52.7734375 C54.6067695,52.9557301 54.3528658,53.1542958 54.1054688,53.3691406 C53.8580717,53.5839854 53.6171887,53.8085926 53.3828125,54.0429688 C53.1484363,54.2773449 52.9628913,54.4791658 52.8261719,54.6484375 C52.6894524,54.8177092 52.6015627,54.9609369 52.5625,55.078125 C52.5885418,55.6640654 52.7252592,56.2890592 52.9726562,56.953125 C53.2200533,57.6171908 53.5781227,58.323564 54.046875,59.0722656 C54.5156273,59.8209673 55.0950486,60.6087198 55.7851562,61.4355469 C56.4752639,62.2623739 57.2760371,63.1315059 58.1875,64.0429688 C59.0989629,64.9544316 59.9680948,65.7552049 60.7949219,66.4453125 C61.6217489,67.1354201 62.4095015,67.7148414 63.1582031,68.1835938 C63.9069048,68.6523461 64.6165331,69.0104154 65.2871094,69.2578125 C65.9576856,69.5052096 66.5859346,69.6484373 67.171875,69.6875 C67.2630213,69.6484373 67.3932283,69.5572924 67.5625,69.4140625 C67.7317717,69.2708326 67.9335926,69.0820324 68.1679688,68.8476562 C68.4023449,68.6132801 68.6236969,68.3691419 68.8320312,68.1152344 C69.0403656,67.8613269 69.2421865,67.604168 69.4375,67.34375 C69.4765627,67.2916664 69.5026041,67.2428388 69.515625,67.1972656 C69.5286459,67.1516925 69.5286459,67.1093752 69.515625,67.0703125 C68.7604129,66.5364557 68.0670604,66.0612 67.4355469,65.6445312 C66.8040333,65.2278625 66.2343775,64.8567725 65.7265625,64.53125 C65.6744789,64.53125 65.6158857,64.5410155 65.5507812,64.5605469 C65.4856768,64.5800782 65.4140629,64.6093748 65.3359375,64.6484375 C65.2317703,64.713542 65.0364598,64.824218 64.75,64.9804688 C64.4635402,65.1367195 64.0924502,65.3385404 63.6367188,65.5859375 L62.9921875,65.9765625 L62.3476562,65.546875 C61.9309875,65.2604152 61.4720077,64.8925804 60.9707031,64.4433594 C60.4693985,63.9941384 59.9192738,63.4700551 59.3203125,62.8710938 C58.7343721,62.2721324 58.2200543,61.7220077 57.7773438,61.2207031 C57.3346332,60.7193985 56.9700535,60.2604187 56.6835938,59.84375 L56.2148438,59.2382812 L56.6054688,58.5546875 C56.8528658,58.0989561 57.0546867,57.7311212 57.2109375,57.4511719 C57.3671883,57.1712226 57.4778643,56.9726568 57.5429688,56.8554688 C57.5820314,56.7773434 57.611328,56.7057295 57.6308594,56.640625 C57.6503907,56.5755205 57.6601562,56.5169273 57.6601562,56.4648438 C57.2044248,55.7486943 56.7714864,55.0781281 56.3613281,54.453125 C55.9511698,53.8281219 55.5572936,53.2421902 55.1796875,52.6953125 L55.140625,52.6953125 C55.0885414,52.6953125 55.0397138,52.7018229 54.9941406,52.7148438 C54.9485675,52.7278646 54.9062502,52.7473957 54.8671875,52.7734375 Z" id="Phone---simple-line-icons-Copy"></path>
                </g>
            </g>
        </g>
    </g>
</svg>