<?xml version="1.0" encoding="UTF-8"?>
<svg width="43px" height="34px" viewBox="0 0 43 34" version="1.1" xmlns="http://www.w3.org/2000/svg" xmlns:xlink="http://www.w3.org/1999/xlink">
    <!-- Generator: Sketch 52.5 (67469) - http://www.bohemiancoding.com/sketch -->
    <title>"</title>
    <desc>Created with Sketch.</desc>
    <g id="Page-1" stroke="none" stroke-width="1" fill="none" fill-rule="evenodd">
        <g id="XL" transform="translate(-443.000000, -6244.000000)" fill="#FFFFFF">
            <g id="Group-14" transform="translate(0.000000, 6149.000000)">
                <path d="M468.133803,129 L466.922535,127.007105 C473.786419,123.383641 477.21831,119.961532 477.21831,116.740675 C477.21831,115.371811 475.926304,114.023097 473.342254,112.694494 C471.040834,111.486672 469.43592,110.278869 468.527465,109.071048 C467.61901,107.863227 467.164789,106.293082 467.164789,104.360568 C467.164789,101.783883 468.083324,99.5796421 469.920423,97.7477798 C471.757521,95.9159174 473.947875,95 476.491549,95 C479.317855,95 481.609146,96.127283 483.365493,98.3818828 C485.12184,100.636483 486,103.57547 486,107.198934 C486,113.157519 483.73899,118.270553 479.216901,122.538188 C477.682621,123.947313 476.178646,125.084661 474.70493,125.950266 C473.231213,126.815872 471.04086,127.832439 468.133803,129 Z M444.211268,129 L443,127.007105 C449.863884,123.34338 453.295775,119.921271 453.295775,116.740675 C453.295775,115.975721 453.013148,115.301365 452.447887,114.717584 C451.882626,114.133804 450.873247,113.459447 449.419718,112.694494 C447.19905,111.567194 445.614324,110.369456 444.665493,109.101243 C443.716662,107.833031 443.242254,106.252822 443.242254,104.360568 C443.242254,101.743622 444.150695,99.5293163 445.967606,97.7175844 C447.784516,95.9058524 449.964776,95 452.508451,95 C455.375132,95 457.686611,96.127283 459.442958,98.3818828 C461.199305,100.636483 462.077465,103.57547 462.077465,107.198934 C462.077465,110.057445 461.502118,112.795132 460.351408,115.412078 C459.200698,118.029024 457.494847,120.404371 455.233803,122.538188 C452.609377,124.953831 448.935235,127.107747 444.211268,129 Z" id="&quot;"></path>
            </g>
        </g>
    </g>
</svg>