<?xml version="1.0" encoding="UTF-8"?>
<svg width="165px" height="165px" viewBox="0 0 165 165" version="1.1" xmlns="http://www.w3.org/2000/svg" xmlns:xlink="http://www.w3.org/1999/xlink">
    <!-- Generator: Sketch 52.5 (67469) - http://www.bohemiancoding.com/sketch -->
    <title>Group 18</title>
    <desc>Created with Sketch.</desc>
    <defs>
        <polygon id="path-1" points="0 0.160217391 164.475594 0.160217391 164.475594 160.662493 0 160.662493"></polygon>
        <polygon id="path-3" points="0 164.839783 164.475594 164.839783 164.475594 0.797101449 0 0.797101449"></polygon>
    </defs>
    <g id="Page-1" stroke="none" stroke-width="1" fill="none" fill-rule="evenodd">
        <g id="XL" transform="translate(-273.000000, -9926.000000)">
            <g id="Group-23" transform="translate(165.000000, 9926.000000)">
                <g id="преимущества">
                    <g id="Group-18" transform="translate(108.000000, 0.000000)">
                        <g id="Group-3" transform="translate(0.000000, 0.636884)">
                            <mask id="mask-2" fill="white">
                                <use xlink:href="#path-1"></use>
                            </mask>
                            <g id="Clip-2"></g>
                            <path d="M164.475594,80.4111159 C164.475594,124.733145 127.656089,160.662493 82.237797,160.662493 C36.8186881,160.662493 0,124.733145 0,80.4111159 C0,36.0898841 36.8186881,0.15973913 82.237797,0.15973913 C127.656089,0.15973913 164.475594,36.0898841 164.475594,80.4111159" id="Fill-1" fill="#FAE5E8" mask="url(#mask-2)"></path>
                        </g>
                        <mask id="mask-4" fill="white">
                            <use xlink:href="#path-3"></use>
                        </mask>
                        <g id="Clip-5"></g>
                        <polygon id="Fill-4" fill="#FFFFFF" mask="url(#mask-4)" points="9.88856436 135.135797 151.53453 135.135797 151.53453 40.5302174 9.88856436 40.5302174"></polygon>
                        <polygon id="Stroke-6" stroke="#989695" stroke-width="4" stroke-linecap="round" stroke-linejoin="round" mask="url(#mask-4)" points="9.88856436 135.135797 151.53453 135.135797 151.53453 40.5302174 9.88856436 40.5302174"></polygon>
                        <polygon id="Fill-7" fill="#989695" mask="url(#mask-4)" points="5.8419802 45.7137681 155.594183 45.7137681 155.594183 35.3458696 5.8419802 35.3458696"></polygon>
                        <path d="M75.399854,135.135717 L46.5942847,163.2455" id="Stroke-8" stroke="#989695" stroke-width="4" stroke-linecap="round" stroke-linejoin="round" mask="url(#mask-4)"></path>
                        <path d="M114.829953,163.24558 L86.0243837,135.135797" id="Stroke-9" stroke="#989695" stroke-width="4" stroke-linecap="round" stroke-linejoin="round" mask="url(#mask-4)"></path>
                        <polygon id="Fill-10" fill="#989695" mask="url(#mask-4)" points="15.7909901 87.842971 72.454604 87.842971 72.454604 50.3218116 15.7909901 50.3218116"></polygon>
                        <polygon id="Fill-11" fill="#FAE5E8" mask="url(#mask-4)" points="15.7909901 129.972174 40.750099 129.972174 40.750099 92.4510145 15.7909901 92.4510145"></polygon>
                        <polygon id="Fill-12" fill="#989695" mask="url(#mask-4)" points="47.495495 129.972174 72.454604 129.972174 72.454604 92.4510145 47.495495 92.4510145"></polygon>
                        <polygon id="Fill-13" fill="#989695" mask="url(#mask-4)" points="82.2263614 129.972174 89.8212624 129.972174 89.8212624 100.257826 82.2263614 100.257826"></polygon>
                        <polygon id="Fill-14" fill="#989695" mask="url(#mask-4)" points="94.1161634 129.972174 101.711064 129.972174 101.711064 111.211594 94.1161634 111.211594"></polygon>
                        <polygon id="Fill-15" fill="#989695" mask="url(#mask-4)" points="106.005149 129.972174 113.60005 129.972174 113.60005 116.364058 106.005149 116.364058"></polygon>
                        <path d="M114.829953,76.6063913 L120.589433,53.6323333 C118.742577,53.1931304 116.815671,52.9547971 114.829953,52.9547971 C101.444532,52.9547971 90.5937401,63.5442899 90.5937401,76.6063913 C90.5937401,89.6684928 101.444532,100.257188 114.829953,100.257188 C128.215374,100.257188 139.066983,89.6684928 139.066983,76.6063913 C139.066983,73.9942899 138.625894,71.4842174 137.824582,69.1343623 L114.829953,76.6063913 Z" id="Fill-16" fill="#989695" mask="url(#mask-4)"></path>
                        <path d="M140.781512,61.4116449 C138.097403,56.163529 133.474136,52.0289638 127.825745,49.8967174 C126.861067,49.532442 125.8678,49.2263551 124.847577,48.9832391 L119.088097,71.9572971 L142.083542,64.4852681 C141.721686,63.4259203 141.287131,62.3992536 140.781512,61.4116449" id="Fill-17" fill="#FAE5E8" mask="url(#mask-4)"></path>
                    </g>
                </g>
            </g>
        </g>
    </g>
</svg>