<?xml version="1.0" encoding="UTF-8"?>
<svg width="165px" height="165px" viewBox="0 0 165 165" version="1.1" xmlns="http://www.w3.org/2000/svg" xmlns:xlink="http://www.w3.org/1999/xlink">
    <!-- Generator: Sketch 52.5 (67469) - http://www.bohemiancoding.com/sketch -->
    <title>Group 15</title>
    <desc>Created with Sketch.</desc>
    <defs>
        <polygon id="path-1" points="0 164.222826 164.475594 164.222826 164.475594 0 0 0"></polygon>
    </defs>
    <g id="Page-1" stroke="none" stroke-width="1" fill="none" fill-rule="evenodd">
        <g id="XL" transform="translate(-638.000000, -9928.000000)">
            <g id="Group-23" transform="translate(165.000000, 9926.000000)">
                <g id="преимущества">
                    <g id="Group-15" transform="translate(473.000000, 2.000000)">
                        <path d="M164.475186,80.2514565 C164.475186,124.573486 127.656498,160.502833 82.2373886,160.502833 C36.8190965,160.502833 0.000408415842,124.573486 0.000408415842,80.2514565 C0.000408415842,35.9302246 36.8190965,7.97101449e-05 82.2373886,7.97101449e-05 C127.656498,7.97101449e-05 164.475186,35.9302246 164.475186,80.2514565" id="Fill-1" fill="#FAE5E8"></path>
                        <path d="M103.44577,156.210043 C103.44577,152.665333 94.447552,149.791783 83.3484431,149.791783 C72.2493342,149.791783 63.2511163,152.665333 63.2511163,156.210043 C63.2511163,159.754754 72.2493342,162.628304 83.3484431,162.628304 C94.447552,162.628304 103.44577,159.754754 103.44577,156.210043" id="Fill-3" fill="#FFFFFF"></path>
                        <path d="M103.44577,156.210043 C103.44577,152.665333 94.447552,149.791783 83.3484431,149.791783 C72.2493342,149.791783 63.2511163,152.665333 63.2511163,156.210043 C63.2511163,159.754754 72.2493342,162.628304 83.3484431,162.628304 C94.447552,162.628304 103.44577,159.754754 103.44577,156.210043 Z" id="Stroke-5" stroke="#989695" stroke-width="4" stroke-linecap="round" stroke-linejoin="round"></path>
                        <mask id="mask-2" fill="white">
                            <use xlink:href="#path-1"></use>
                        </mask>
                        <g id="Clip-8"></g>
                        <polygon id="Fill-7" fill="#FFFFFF" mask="url(#mask-2)" points="79.6427228 154.757246 85.8473762 154.757246 85.8473762 100.617319 79.6427228 100.617319"></polygon>
                        <polygon id="Stroke-9" stroke="#989695" stroke-width="4" stroke-linecap="round" stroke-linejoin="round" mask="url(#mask-2)" points="79.6427228 154.757246 85.8473762 154.757246 85.8473762 100.617319 79.6427228 100.617319"></polygon>
                        <path d="M97.4072599,52.7954565 C97.3263936,48.8689348 101.470998,40.2379203 103.185527,34.9818333 C106.139191,25.9323406 98.0901312,20.0186449 88.758646,18.1239348 L88.758646,11.9766884 L76.0838688,11.9766884 L76.0838688,18.0458188 C66.8757252,19.807413 59.223646,25.5696594 61.2894134,34.9818333 C62.5889926,40.9019058 68.2994629,48.7549493 68.1524332,52.7954565 C67.7064431,65.0397319 57.0034975,74.6671232 57.0034975,81.8912536 C57.0034975,96.3913261 68.3010965,100.616761 82.2378787,100.616761 C96.1738441,100.616761 107.471443,96.3913261 107.471443,81.8912536 C107.471443,74.6846594 97.6474084,64.5758188 97.4072599,52.7954565" id="Fill-10" fill="#FFFFFF" mask="url(#mask-2)"></path>
                        <path d="M97.4072599,52.7954565 C97.3263936,48.8689348 101.470998,40.2379203 103.185527,34.9818333 C106.139191,25.9323406 98.0901312,20.0186449 88.758646,18.1239348 L88.758646,11.9766884 L76.0838688,11.9766884 L76.0838688,18.0458188 C66.8757252,19.807413 59.223646,25.5696594 61.2894134,34.9818333 C62.5889926,40.9019058 68.2994629,48.7549493 68.1524332,52.7954565 C67.7064431,65.0397319 57.0034975,74.6671232 57.0034975,81.8912536 C57.0034975,96.3913261 68.3010965,100.616761 82.2378787,100.616761 C96.1738441,100.616761 107.471443,96.3913261 107.471443,81.8912536 C107.471443,74.6846594 97.6474084,64.5758188 97.4072599,52.7954565 Z" id="Stroke-11" stroke="#989695" stroke-width="4" stroke-linecap="round" stroke-linejoin="round" mask="url(#mask-2)"></path>
                        <path d="M76.8756238,18.0456594 C76.1045347,18.285587 75.350599,18.5988478 74.627703,18.985442" id="Stroke-12" stroke="#989695" stroke-width="2" stroke-linecap="round" stroke-linejoin="round" mask="url(#mask-2)"></path>
                        <path d="M70.844302,22.0657609 C68.3880891,25.0086594 67.0002921,29.3393116 67.7632129,34.9819928 C68.5637079,40.9020652 72.0801683,48.7543116 71.9895,52.7956159 C71.7150446,65.0398913 65.1232129,74.6672826 65.1232129,81.891413 C65.1232129,93.5067754 69.5880149,98.5285145 75.7779653,100.06692" id="Stroke-13" stroke="#989695" stroke-width="2" stroke-linecap="round" stroke-linejoin="round" stroke-dasharray="6.072,6.072" mask="url(#mask-2)"></path>
                        <path d="M78.2197203,100.491935 C79.016948,100.577225 79.8337797,100.61708 80.6661312,100.61708" id="Stroke-14" stroke="#989695" stroke-width="2" stroke-linecap="round" stroke-linejoin="round" mask="url(#mask-2)"></path>
                    </g>
                </g>
            </g>
        </g>
    </g>
</svg>